Plot Gallery - Group 2 – Neurowissenschaft im Computerlab
…
# A tibble: 252 × 5
# Groups:   id [126]
   id      condition trial ncorrect mean_rt
   <chr>   <chr>     <int>    <dbl>   <dbl>
 1 sub-007 accuracy     60       41   1.23 
 2 sub-007 speed        60       40   0.942
 3 sub-010 accuracy     60       60   1.01 
 4 sub-010 speed        60       60   0.636
 5 sub-011 accuracy     60       55   1.28 
 6 sub-011 speed        60       54   0.535
 7 sub-012 accuracy     60       58   0.611
 8 sub-012 speed        60       59   0.650
 9 sub-014 accuracy     60       43   2.60 
10 sub-014 speed        59       22   3.01 
# ℹ 242 more rows
…
