21 Signalentdeckungstheorie – Neurowissenschaft im Computerlab
…
Um \(d'\) und \(c\) aus den beobachteten Antworthäufigkeiten zu berechnen, müssen wir zuerst die relativen Häufigkeiten der Hits (Hit Rate) und der False Alarms (FA Rate) berechnen.

Die Hits sind die rechts-Antworten auf rechts-Stimuli. Dies bedeutet, dass wir zählen, wie oft bei einem rechts Stimulus die Antwort rechts war. Die False Alarms sind die rechts-Antworten auf links-Stimuli. Dies bedeutet, dass wir zählen, wie oft bei einem links Stimulus die Antwort rechts war.

Um \(d'\) und \(c\) für jede Vpn in beiden Instruktions Bedingungen zu berechnen, zählen wir die verschiedenen Antworttypen (vgl. Daten unten) pro Person und Bedingung.

Relative Häufigkeiten von Hits und False Alarms berechnen

sdt_summary <- sdt |>
    group_by(..., ...) |>
    count(...)

sdt_summary

# A tibble: 539 × 4
# Groups:   id, condition [140]
   id      condition type      n
   <chr>   <chr>     <chr> <int>
 1 sub-007 accuracy  CR       21
 2 sub-007 accuracy  FA       10
 3 sub-007 accuracy  Hit      20
 4 sub-007 accuracy  Miss      9
 5 sub-007 speed     CR       20
 6 sub-007 speed     FA       10
 7 sub-007 speed     Hit      20
 8 sub-007 speed     Miss     10
 9 sub-010 accuracy  CR       30
10 sub-010 accuracy  Hit      30
# ℹ 529 more rows

Vor dem Berechnen von \(d'\) und \(c\) müssen wir den Datensatz noch formatieren: Hierzu konvertieren wir den Datensatz von long zu wide, um alle vier Antworttypen in jeweils eigenen Variablen zu speichern.

sdt_summary <- sdt_summary |>
    pivot_wider(names_from = type, 
                values_from = n)
sdt_summary

# A tibble: 140 × 6
# Groups:   id, condition [140]
   id      condition    CR    FA   Hit  Miss
   <chr>   <chr>     <int> <int> <int> <int>
 1 sub-007 accuracy     21    10    20     9
 2 sub-007 speed        20    10    20    10
 3 sub-010 accuracy     30    NA    30    NA
 4 sub-010 speed        30    NA    30    NA
 5 sub-011 accuracy     26     1    29     4
 6 sub-011 speed        26     2    28     4
 7 sub-012 accuracy     29     1    29     1
 8 sub-012 speed        30     1    29    NA
 9 sub-015 accuracy     25     6    24     5
10 sub-015 speed        22     5    25     8
# ℹ 130 more rows

NAs ersetzen

Wir erstellen eine Hilfsfunktion replace_NA() um alle fehlenden Werte (NA) durch 0 zu ersetzen.

replace_NA <- function(x) {
    x = ifelse(is.na(x), 0, x)
    x
}

sdt_summary <- sdt_summary |>
    mutate(across(c(Hit, Miss, FA, CR), replace_NA))
sdt_summary

# A tibble: 140 × 6
# Groups:   id, condition [140]
   id      condition    CR    FA   Hit  Miss
   <chr>   <chr>     <int> <dbl> <int> <dbl>
 1 sub-007 accuracy     21    10    20     9
 2 sub-007 speed        20    10    20    10
 3 sub-010 accuracy     30     0    30     0
 4 sub-010 speed        30     0    30     0
 5 sub-011 accuracy     26     1    29     4
 6 sub-011 speed        26     2    28     4
 7 sub-012 accuracy     29     1    29     1
 8 sub-012 speed        30     1    29     0
 9 sub-015 accuracy     25     6    24     5
10 sub-015 speed        22     5    25     8
# ℹ 130 more rows
…
Die Hit Rate und die False Alarm Rate kann anhand der folgenden Formeln berechnet werden:

\[ Hit~Rate = \frac{Hits}{Hits + Misses} \]

\[ FA~Rate = \frac{False Alarms}{False Alarms + Correct Rejections} \] 

Hands-on: Hit Rate und False Alarm Rate berechnen

sdt_summary <- sdt_summary |>
    mutate(hit_rate = ...,
           fa_rate = ...)
sdt_summary

# A tibble: 140 × 8
# Groups:   id, condition [140]
   id      condition    CR    FA   Hit  Miss hit_rate fa_rate
   <chr>   <chr>     <int> <dbl> <int> <dbl>    <dbl>   <dbl>
 1 sub-007 accuracy     21    10    20     9    0.690  0.323 
 2 sub-007 speed        20    10    20    10    0.667  0.333 
 3 sub-010 accuracy     30     0    30     0    1      0     
 4 sub-010 speed        30     0    30     0    1      0     
 5 sub-011 accuracy     26     1    29     4    0.879  0.0370
 6 sub-011 speed        26     2    28     4    0.875  0.0714
 7 sub-012 accuracy     29     1    29     1    0.967  0.0333
 8 sub-012 speed        30     1    29     0    1      0.0323
 9 sub-015 accuracy     25     6    24     5    0.828  0.194 
10 sub-015 speed        22     5    25     8    0.758  0.185 
# ℹ 130 more rows
…
Für den nächsen Schritt nutzen wir die Funktion correct_zero_one().

sdt_summary <- sdt_summary |>
    mutate(across(c(hit_rate, fa_rate), correct_zero_one))
sdt_summary

# A tibble: 140 × 8
# Groups:   id, condition [140]
   id      condition    CR    FA   Hit  Miss hit_rate fa_rate
   <chr>   <chr>     <int> <dbl> <int> <dbl>    <dbl>   <dbl>
 1 sub-007 accuracy     21    10    20     9    0.690  0.323 
 2 sub-007 speed        20    10    20    10    0.667  0.333 
 3 sub-010 accuracy     30     0    30     0    0.999  0.001 
 4 sub-010 speed        30     0    30     0    0.999  0.001 
 5 sub-011 accuracy     26     1    29     4    0.879  0.0370
 6 sub-011 speed        26     2    28     4    0.875  0.0714
 7 sub-012 accuracy     29     1    29     1    0.967  0.0333
 8 sub-012 speed        30     1    29     0    0.999  0.0323
 9 sub-015 accuracy     25     6    24     5    0.828  0.194 
10 sub-015 speed        22     5    25     8    0.758  0.185 
# ℹ 130 more rows

\(z\)-Transformation

Als nächstes müssen die \(z\)-Werte der Hit Rate und der False Alarm Rate berechnet werden. Dazu kann die Funktion qnorm()verwendet werden.

Hands-on: \(z\)-Transformation

sdt_summary <- sdt_summary |>
    mutate(zhr = ...,
           zfa = ...)
sdt_summary

# A tibble: 140 × 10
# Groups:   id, condition [140]
   id      condition    CR    FA   Hit  Miss hit_rate fa_rate   zhr    zfa
   <chr>   <chr>     <int> <dbl> <int> <dbl>    <dbl>   <dbl> <dbl>  <dbl>
 1 sub-007 accuracy     21    10    20     9    0.690  0.323  0.495 -0.460
 2 sub-007 speed        20    10    20    10    0.667  0.333  0.431 -0.431
 3 sub-010 accuracy     30     0    30     0    0.999  0.001  3.09  -3.09 
 4 sub-010 speed        30     0    30     0    0.999  0.001  3.09  -3.09 
 5 sub-011 accuracy     26     1    29     4    0.879  0.0370 1.17  -1.79 
 6 sub-011 speed        26     2    28     4    0.875  0.0714 1.15  -1.47 
 7 sub-012 accuracy     29     1    29     1    0.967  0.0333 1.83  -1.83 
 8 sub-012 speed        30     1    29     0    0.999  0.0323 3.09  -1.85 
 9 sub-015 accuracy     25     6    24     5    0.828  0.194  0.945 -0.865
10 sub-015 speed        22     5    25     8    0.758  0.185  0.699 -0.896
# ℹ 130 more rows
…
Nun können die SDT Parameter anhand der folgenden Formeln berechnet werden:

\[d' = z(Hit~Rate) - z(FA~Rate)\]

\[c = -0.5 * (z(Hit~Rate) + z(FA~Rate))\] 

Hands-on: \(d'\) und \(c\) berechnen

sdt_summary <- sdt_summary |>
    mutate(dprime = ...,
           c = ...) |>
    mutate(across(c(dprime, c), round, 2))

# A tibble: 140 × 13
# Groups:   id, condition [140]
   id     condition    CR    FA   Hit  Miss hit_rate fa_rate   zhr    zfa dprime
   <chr>  <chr>     <int> <dbl> <int> <dbl>    <dbl>   <dbl> <dbl>  <dbl>  <dbl>
 1 sub-0… accuracy     21    10    20     9    0.690  0.323  0.495 -0.460   0.96
 2 sub-0… speed        20    10    20    10    0.667  0.333  0.431 -0.431   0.86
 3 sub-0… accuracy     30     0    30     0    0.999  0.001  3.09  -3.09    6.18
 4 sub-0… speed        30     0    30     0    0.999  0.001  3.09  -3.09    6.18
 5 sub-0… accuracy     26     1    29     4    0.879  0.0370 1.17  -1.79    2.96
 6 sub-0… speed        26     2    28     4    0.875  0.0714 1.15  -1.47    2.62
 7 sub-0… accuracy     29     1    29     1    0.967  0.0333 1.83  -1.83    3.67
 8 sub-0… speed        30     1    29     0    0.999  0.0323 3.09  -1.85    4.94
 9 sub-0… accuracy     25     6    24     5    0.828  0.194  0.945 -0.865   1.81
10 sub-0… speed        22     5    25     8    0.758  0.185  0.699 -0.896   1.59
# ℹ 130 more rows
# ℹ 2 more variables: k <dbl>, c <dbl>

Neuer Datensatz erstellen

Für den finalen Datensatz wählen wir d' und c für jede Person in jeder Bedingung.

Hands-on: Datensatz erstellen

sdt_final <- sdt_summary |>
    select(...)
sdt_final

# A tibble: 140 × 4
# Groups:   id, condition [140]
   id      condition dprime     c
   <chr>   <chr>      <dbl> <dbl>
 1 sub-007 accuracy    0.96 -0.02
 2 sub-007 speed       0.86  0   
 3 sub-010 accuracy    6.18  0   
 4 sub-010 speed       6.18  0   
 5 sub-011 accuracy    2.96  0.31
 6 sub-011 speed       2.62  0.16
 7 sub-012 accuracy    3.67  0   
 8 sub-012 speed       4.94 -0.62
 9 sub-015 accuracy    1.81 -0.04
10 sub-015 speed       1.59  0.1 
# ℹ 130 more rows
…
